prosa-pos
EXT-ID[---]     FLD[Header]                    FRMT[FIXED]              LL[0]  LEN[12]   DATA[ISO025000070] 
EXT-ID[---]     FLD[MTI]                       FRMT[FIXED]              LL[0]  LEN[4]    DATA[0200] 
Parsed Incoming Body Fields :
EXT-ID[---]     FLD[Bitmap]                    FRMT[BITMAP]             LL[0]  LEN[128]  DATA[10110010001110001100010000000001001010001010100110000000000110100000000000000000000000000000000000010000000000000000000110011000] 
EXT-ID[3]       FLD[Processing Code]           FRMT[FIXED GROUP]        LL[0]  LEN[6]    DATA[000030] 
+EXT-ID[3.1]    FLD[Transaction Type]          FRMT[FIXED]              LL[0]  LEN[2]    DATA[00]   
+EXT-ID[3.2]    FLD[Account Type From]         FRMT[FIXED]              LL[0]  LEN[2]    DATA[00]   
+EXT-ID[3.3]    FLD[Account Type To]           FRMT[FIXED]              LL[0]  LEN[2]    DATA[30]   
EXT-ID[4]       FLD[Transaction Amount]        FRMT[FIXED]              LL[0]  LEN[12]   DATA[000000187718] 
EXT-ID[7]       FLD[Transmission Date and ..]  FRMT[FIXED GROUP]        LL[0]  LEN[10]   DATA[0623220622] 
+EXT-ID[null]   FLD[Date Transmission]         FRMT[FIXED]              LL[0]  LEN[4]    DATA[0623] 
+EXT-ID[null]   FLD[Time Transmission]         FRMT[FIXED]              LL[0]  LEN[6]    DATA[220622] 
EXT-ID[11]      FLD[System Trace Audit Num..]  FRMT[FIXED]              LL[0]  LEN[6]    DATA[009762] 
EXT-ID[12]      FLD[Local Transaction Time..]  FRMT[FIXED]              LL[0]  LEN[6]    DATA[040621] 
EXT-ID[13]      FLD[Local Transaction Date..]  FRMT[FIXED]              LL[0]  LEN[4]    DATA[0624] 
EXT-ID[17]      FLD[Capture Date]              FRMT[FIXED]              LL[0]  LEN[4]    DATA[0623] 
EXT-ID[18]      FLD[Merchant type]             FRMT[FIXED]              LL[0]  LEN[4]    DATA[4121] 
EXT-ID[22]      FLD[Entry Mode]                FRMT[FIXED GROUP]        LL[0]  LEN[3]    DATA[900]  
+EXT-ID[null]   FLD[Card Data Input Capabi..]  FRMT[FIXED]              LL[0]  LEN[2]    DATA[90]   
+EXT-ID[null]   FLD[Cardholder Authenticat..]  FRMT[FIXED]              LL[0]  LEN[1]    DATA[0]    
EXT-ID[32]      FLD[Acquiring Institution ..]  FRMT[LLVAR]              LL[2]  LEN[6]    DATA[453788] 
EXT-ID[35]      FLD[Track 2 Data]              FRMT[LLVAR]              LL[2]  LEN[21]   DATA[4201998700001724=1611] 
EXT-ID[37]      FLD[Retrieval Reference Nu..]  FRMT[FIXED]              LL[0]  LEN[12]   DATA[517432149077] 
EXT-ID[41]      FLD[Card Acceptor Terminal..]  FRMT[FIXED]              LL[0]  LEN[16]   DATA[725J3QRJ        ] 
EXT-ID[43]      FLD[Card Acceptor Name/Loc..]  FRMT[FIXED GROUP]        LL[0]  LEN[40]   DATA[SQ *SCLASSLIMOS & SEDACalgary      AB CA] 
+EXT-ID[null]   FLD[Terminal Owner]            FRMT[FIXED]              LL[0]  LEN[22]   DATA[SQ *SCLASSLIMOS & SEDA] 
+EXT-ID[null]   FLD[Terminal City]             FRMT[FIXED]              LL[0]  LEN[13]   DATA[Calgary      ] 
+EXT-ID[null]   FLD[Terminal State]            FRMT[FIXED]              LL[0]  LEN[3]    DATA[AB ]  
+EXT-ID[null]   FLD[Terminal Country]          FRMT[FIXED]              LL[0]  LEN[2]    DATA[CA]   
EXT-ID[45]      FLD[Track 1 Data]              FRMT[LLVAR]              LL[2]  LEN[61]   DATA[B4201998700001724^ONATE BARRON/MARIO ^16112010000000342000000] 
EXT-ID[48]      FLD[Retailer Data]             FRMT[LLLVAR]             LL[3]  LEN[27]   DATA[211366000053360    00000000] 
EXT-ID[49]      FLD[Transaction Currency C..]  FRMT[FIXED]              LL[0]  LEN[3]    DATA[484]  
EXT-ID[60]      FLD[Terminal Data]             FRMT[LLLVAR]             LL[3]  LEN[16]   DATA[VISAVISA-3600000] 
EXT-ID[61]      FLD[Card Issuer-Category-R..]  FRMT[LLLVAR]             LL[3]  LEN[19]   DATA[B030000000000000000] 
EXT-ID[63]      FLD[Additional Data 63]        FRMT[LLLVAR]             LL[3]  LEN[94]   DATA[& 0000500094! C000026         60000T2X          ! Q200002 03! C400012 000000000001! Q100002 9 ] 
EXT-ID[100]     FLD[Receiving Institution ..]  FRMT[LLVAR]              LL[2]  LEN[2]    DATA[30]   
EXT-ID[120]     FLD[POSTerminal Address-Br..]  FRMT[LLLVAR]             LL[3]  LEN[29]   DATA[SQ *SCLASSLIMOS & SEDA   0000] 
EXT-ID[121]     FLD[Authorization Indicato..]  FRMT[LLLVAR]             LL[3]  LEN[20]   DATA[000000000000000000  ] 
EXT-ID[124]     FLD[Info Text]                 FRMT[LLLVAR]             LL[3]  LEN[9]    DATA[000000000] 
EXT-ID[125]     FLD[POS Settlement Data]       FRMT[LLLVAR]             LL[3]  LEN[12]   DATA[C3VISA000000] 


Ya se perdió tu archivo! haha!





prime-process

17:05:27.097 DEBUG [MsgParser] ListProc-Q1:I0
        [Message Timestamp:2015-06-23 17:05:27.088]
 FORMATTING:
HEADER:
EXT-ID[---]     FLD[MTI]                       FRMT[Fixed]       LL[0]  LEN[4]    TYPE[String]             CHS[Binary Coded De..]  DATA[0100]
BODY:
EXT-ID[i002]    FLD[i002]                      FRMT[LLVAR]       LL[1]  LEN[16]   TYPE[String]             CHS[Binary Coded De..]  DATA[4201998700001724]
EXT-ID[i003]    FLD[i003]                      FRMT[Fixed]       LL[0]  LEN[5]    TYPE[String]             CHS[Binary Coded De..]  DATA[00000]
EXT-ID[i004]    FLD[i004]                      FRMT[Fixed]       LL[0]  LEN[6]    TYPE[String]             CHS[Binary Coded De..]  DATA[187718]
EXT-ID[i007]    FLD[i007]                      FRMT[Fixed]       LL[0]  LEN[10]   TYPE[String]             CHS[Binary Coded De..]  DATA[0623220622]
EXT-ID[i011]    FLD[i011]                      FRMT[Fixed]       LL[0]  LEN[6]    TYPE[String]             CHS[Binary Coded De..]  DATA[009762]
EXT-ID[i012]    FLD[i012]                      FRMT[Fixed]       LL[0]  LEN[6]    TYPE[String]             CHS[Binary Coded De..]  DATA[040621]
EXT-ID[i014]    FLD[i014]                      FRMT[Fixed]       LL[0]  LEN[4]    TYPE[String]             CHS[Binary Coded De..]  DATA[1611]
EXT-ID[i018]    FLD[i018]                      FRMT[Fixed]       LL[0]  LEN[4]    TYPE[String]             CHS[Binary Coded De..]  DATA[4121]
EXT-ID[i019]    FLD[i019]                      FRMT[Fixed]       LL[0]  LEN[3]    TYPE[String]             CHS[Binary Coded De..]  DATA[484]
EXT-ID[i022]    FLD[i022]                      FRMT[Fixed]       LL[0]  LEN[3]    TYPE[String]             CHS[Binary Coded De..]  DATA[900]
EXT-ID[i025]    FLD[i025]                      FRMT[Fixed]       LL[0]  LEN[2]    TYPE[String]             CHS[Binary Coded De..]  DATA[00]
EXT-ID[i032]    FLD[i032]                      FRMT[LLVAR]       LL[1]  LEN[6]    TYPE[String]             CHS[Binary Coded De..]  DATA[453788]
EXT-ID[i035]    FLD[i035]                      FRMT[LLVAR]       LL[1]  LEN[37]   TYPE[String]             CHS[Binary Coded De..]  DATA[4201998700001724=16112010000034200000]
EXT-ID[i037]    FLD[i037]                      FRMT[Fixed]       LL[0]  LEN[12]   TYPE[String]             CHS[EBCDIC]             DATA[517432149077]
EXT-ID[i039]    FLD[i039]                      FRMT[Fixed]       LL[0]  LEN[7]    TYPE[String]             CHS[EBCDIC]             DATA[$EMPTY$]
EXT-ID[i041]    FLD[i041]                      FRMT[Fixed]       LL[0]  LEN[16]   TYPE[String]             CHS[EBCDIC]             DATA[725J3QRJ        ]
EXT-ID[i042]    FLD[i042]                      FRMT[Fixed]       LL[0]  LEN[7]    TYPE[String]             CHS[EBCDIC]             DATA[2113660]
EXT-ID[i043]    FLD[i043]                      FRMT[Fixed]       LL[0]  LEN[40]   TYPE[String]             CHS[EBCDIC]             DATA[SQ *SCLASSLIMOS & SEDACalgary      AB CA]
EXT-ID[i045]    FLD[i045]                      FRMT[LLVAR]       LL[1]  LEN[7]    TYPE[String]             CHS[Binary Coded De..]  DATA[$EMPTY$]
EXT-ID[i049]    FLD[i049]                      FRMT[Fixed]       LL[0]  LEN[3]    TYPE[String]             CHS[Binary Coded De..]  DATA[484]
EXT-ID[i060]    FLD[i060]                      FRMT[LLVAR]       LL[1]  LEN[10]   TYPE[String]             CHS[Binary Coded De..]  DATA[4000010000]
EXT-ID[i063]    FLD[i063]                      FRMT[Fixed]       LL[0]  LEN[7]    TYPE[String]             CHS[Binary Coded De..]  DATA[$EMPTY$]
EXT-ID[i102]    FLD[i102]                      FRMT[LLVAR]       LL[1]  LEN[7]    TYPE[String]             CHS[EBCDIC]             DATA[$EMPTY$]
EXT-ID[i103]    FLD[i103]                      FRMT[LLVAR]       LL[1]  LEN[7]    TYPE[String]             CHS[EBCDIC]             DATA[$EMPTY$]
EXT-ID[---]     FLD[120]                       FRMT[LLL ASCII]   LL[3]  LEN[67]   TYPE[String]             CHS[ASCII]              DATA[USRDT C412000000000001 C026        60000T2X^@^@         Q20203 Q1029 ]


17:05:40.502 TRACE [ConnectionStatisticalInfo] Connection Statistics Manager
        Updating existing IAP stats iap:/FTS34003LN/PRIME-PROCESS/PRIME-ATM/PRIME-ATM-IAP2 1 Minute from 2015-06-23_17:05:00: expires in 19s,
        retain for 259s, in/out 0/0
17:05:47.097 INFO  [FlightTable] ExFlightThread
        << FLIGHT TIMER; Key:5174321490774201998700001724 TIMEOUT >>
1
